{
    "name":        "Default Pages Frontend Theme",
    "slug":        "frontend::pages",
    "description": "The default theme based on the Pages Template.",
    "author":      "Shane Daniels, LLC",
    "version":     "1.0"
}
